<?xml version="1.0" encoding="UTF-8" standalone="no"?>
<!-- Created with Inkscape (http://www.inkscape.org/) -->

<svg
   xmlns:dc="http://purl.org/dc/elements/1.1/"
   xmlns:cc="http://creativecommons.org/ns#"
   xmlns:rdf="http://www.w3.org/1999/02/22-rdf-syntax-ns#"
   xmlns:svg="http://www.w3.org/2000/svg"
   xmlns="http://www.w3.org/2000/svg"
   xmlns:sodipodi="http://sodipodi.sourceforge.net/DTD/sodipodi-0.dtd"
   xmlns:inkscape="http://www.inkscape.org/namespaces/inkscape"
   width="640px"
   height="480px"
   id="svg2985"
   version="1.1"
   inkscape:version="0.48.3.1 r9886"
   sodipodi:docname="New document 2">
  <defs
     id="defs2987" />
  <sodipodi:namedview
     id="base"
     pagecolor="#ffffff"
     bordercolor="#666666"
     borderopacity="1.0"
     inkscape:pageopacity="0.0"
     inkscape:pageshadow="2"
     inkscape:zoom="0.77472527"
     inkscape:cx="239.64544"
     inkscape:cy="363.35834"
     inkscape:current-layer="layer1"
     inkscape:document-units="px"
     showgrid="false"
     inkscape:window-width="1124"
     inkscape:window-height="700"
     inkscape:window-x="1280"
     inkscape:window-y="24"
     inkscape:window-maximized="0" />
  <metadata
     id="metadata2990">
    <rdf:RDF>
      <cc:Work
         rdf:about="">
        <dc:format>image/svg+xml</dc:format>
        <dc:type
           rdf:resource="http://purl.org/dc/dcmitype/StillImage" />
        <dc:title></dc:title>
      </cc:Work>
    </rdf:RDF>
  </metadata>
  <g
     id="layer1"
     inkscape:label="Layer 1"
     inkscape:groupmode="layer">
    <rect
       style="fill:none;stroke:#3e3e3e;stroke-width:12.05727577;stroke-linecap:round;stroke-linejoin:round;stroke-miterlimit:4;stroke-opacity:1;stroke-dasharray:none"
       id="rect2993-5"
       width="614.91479"
       height="454.43451"
       x="13.301476"
       y="12.697632" />
    <path
       style="fill:none;stroke:#3e3e3e;stroke-width:3.61718273;stroke-linecap:butt;stroke-linejoin:miter;stroke-miterlimit:4;stroke-opacity:1;stroke-dasharray:3.61718256, 10.85154767;stroke-dashoffset:0"
       d="m 216.98118,44.917821 0,401.321769 0,0"
       id="path3783"
       inkscape:connector-curvature="0" />
    <path
       style="fill:none;stroke:#3e3e3e;stroke-width:3.61718273;stroke-linecap:butt;stroke-linejoin:miter;stroke-miterlimit:4;stroke-opacity:1;stroke-dasharray:3.61718256, 10.85154767;stroke-dashoffset:0"
       d="m 421.54296,46.536051 0,401.321779 0,0"
       id="path3783-6"
       inkscape:connector-curvature="0" />
    <g
       id="g3985"
       transform="matrix(1.1596036,0,0,1.2536859,-45.955514,-61.672159)">
      <path
         inkscape:connector-curvature="0"
         id="path3789"
         d="m 428.66312,80.664891 125.60162,0"
         style="fill:none;stroke:#000000;stroke-width:12;stroke-linecap:round;stroke-linejoin:miter;stroke-miterlimit:4;stroke-opacity:1;stroke-dasharray:none" />
      <rect
         y="106.25548"
         x="432.02435"
         height="58.212463"
         width="118.87913"
         id="rect2993-7-5"
         style="fill:none;stroke:#3e3e3e;stroke-width:9;stroke-linecap:round;stroke-linejoin:round;stroke-miterlimit:4;stroke-opacity:1;stroke-dasharray:none" />
      <rect
         y="183.70229"
         x="432.02435"
         height="58.212463"
         width="118.87913"
         id="rect2993-7-2"
         style="fill:none;stroke:#3e3e3e;stroke-width:9;stroke-linecap:round;stroke-linejoin:round;stroke-miterlimit:4;stroke-opacity:1;stroke-dasharray:none" />
      <rect
         y="261.14908"
         x="432.02435"
         height="58.212463"
         width="118.87913"
         id="rect2993-7-53"
         style="fill:none;stroke:#3e3e3e;stroke-width:9;stroke-linecap:round;stroke-linejoin:round;stroke-miterlimit:4;stroke-opacity:1;stroke-dasharray:none" />
      <rect
         y="338.59589"
         x="432.02435"
         height="58.212463"
         width="118.87913"
         id="rect2993-7-20"
         style="fill:none;stroke:#3e3e3e;stroke-width:9;stroke-linecap:round;stroke-linejoin:round;stroke-miterlimit:4;stroke-opacity:1;stroke-dasharray:none" />
    </g>
    <g
       id="g3947"
       transform="matrix(1.1596036,0,0,1.2536859,-45.955514,-63.200458)">
      <path
         inkscape:connector-curvature="0"
         id="path3789-8"
         d="m 254.02188,81.883936 125.60162,0"
         style="fill:none;stroke:#000000;stroke-width:12;stroke-linecap:round;stroke-linejoin:miter;stroke-miterlimit:4;stroke-opacity:1;stroke-dasharray:none" />
      <rect
         y="107.47453"
         x="257.38312"
         height="58.212463"
         width="118.87913"
         id="rect2993-7-5-3"
         style="fill:none;stroke:#3e3e3e;stroke-width:9;stroke-linecap:round;stroke-linejoin:round;stroke-miterlimit:4;stroke-opacity:1;stroke-dasharray:none" />
      <rect
         y="184.92131"
         x="257.38312"
         height="58.212463"
         width="118.87913"
         id="rect2993-7-2-5"
         style="fill:none;stroke:#3e3e3e;stroke-width:9;stroke-linecap:round;stroke-linejoin:round;stroke-miterlimit:4;stroke-opacity:1;stroke-dasharray:none" />
    </g>
    <g
       id="g3979"
       transform="matrix(1.1596036,0,0,1.2536859,-45.955514,-65.707832)">
      <path
         inkscape:connector-curvature="0"
         id="path3789-1"
         d="m 74.021882,83.883938 125.601618,0"
         style="fill:none;stroke:#000000;stroke-width:12;stroke-linecap:round;stroke-linejoin:miter;stroke-miterlimit:4;stroke-opacity:1;stroke-dasharray:none" />
      <rect
         y="109.47453"
         x="77.383125"
         height="58.212463"
         width="118.87913"
         id="rect2993-7-5-1"
         style="fill:none;stroke:#3e3e3e;stroke-width:9;stroke-linecap:round;stroke-linejoin:round;stroke-miterlimit:4;stroke-opacity:1;stroke-dasharray:none" />
      <rect
         y="186.92134"
         x="77.383125"
         height="58.212463"
         width="118.87913"
         id="rect2993-7-2-9"
         style="fill:none;stroke:#3e3e3e;stroke-width:9;stroke-linecap:round;stroke-linejoin:round;stroke-miterlimit:4;stroke-opacity:1;stroke-dasharray:none" />
      <rect
         y="264.36813"
         x="77.383125"
         height="58.212463"
         width="118.87913"
         id="rect2993-7-53-7"
         style="fill:none;stroke:#3e3e3e;stroke-width:9;stroke-linecap:round;stroke-linejoin:round;stroke-miterlimit:4;stroke-opacity:1;stroke-dasharray:none" />
    </g>
  </g>
</svg>
